<svg width="34" height="28" viewBox="0 0 34 28" fill="none" xmlns="http://www.w3.org/2000/svg">
<path d="M4.48585 6.88037L2.18457 9.18165L7.42032 14.414L2.18457 19.6497L4.48585 21.951L12.0229 14.414L4.48585 6.88037Z" stroke="#171321" stroke-width="0.680851" stroke-miterlimit="10"/>
<path d="M14.3237 6.88037L12.0225 9.18165L17.2548 14.414L12.0225 19.6497L14.3237 21.951L21.8608 14.414L14.3237 6.88037Z" stroke="#171321" stroke-width="0.680851" stroke-miterlimit="10"/>
<path d="M24.1621 6.88037L21.8574 9.18165L27.0932 14.414L21.8574 19.6497L24.1621 21.951L31.6957 14.414L24.1621 6.88037Z" stroke="#171321" stroke-width="0.680851" stroke-miterlimit="10"/>
<path d="M1 6.18591V1.07953H6.10638" stroke="#171321" stroke-width="0.680851" stroke-miterlimit="10"/>
<path d="M27.8936 1.07953H32.9999V6.18591" stroke="#171321" stroke-width="0.680851" stroke-miterlimit="10"/>
<path d="M32.9999 22.5264V23.5476C32.9999 25.8038 31.171 27.6328 28.9148 27.6328H27.8936" stroke="#171321" stroke-width="0.680851" stroke-miterlimit="10"/>
<path d="M6.10638 27.6328H1V22.5264" stroke="#171321" stroke-width="0.680851" stroke-miterlimit="10"/>
</svg>
