<svg width="131" height="25" viewBox="0 0 131 25" fill="none" xmlns="http://www.w3.org/2000/svg">
<path d="M32.3668 11.1758C33.3891 11.1758 34.1946 10.773 34.8451 9.9676L36.1463 11.3307C35.093 12.5079 33.8848 13.0965 32.4598 13.0965C31.0347 13.0965 29.8885 12.6628 28.9591 11.7644C28.0298 10.866 27.5961 9.75075 27.5961 8.38767C27.5961 7.0246 28.0608 5.87838 28.9901 4.97999C29.9195 4.0816 31.0657 3.61692 32.4288 3.61692C33.9467 3.61692 35.2169 4.20552 36.2082 5.35174L34.9381 6.80775C34.2875 6.00229 33.4821 5.59957 32.5217 5.59957C31.7472 5.59957 31.0967 5.8474 30.5391 6.34306C29.9814 6.83873 29.7026 7.52026 29.7026 8.38767C29.7026 9.25508 29.9505 9.93662 30.4771 10.4633C31.0037 10.897 31.6233 11.1758 32.3668 11.1758ZM37.7881 12.9726V3.77181H39.8327V11.1448H43.7671V12.9726H37.7881ZM52.751 11.7024C51.8216 12.6008 50.6754 13.0655 49.3123 13.0655C47.9492 13.0655 46.803 12.6008 45.8736 11.7024C44.9443 10.804 44.4796 9.65781 44.4796 8.32571C44.4796 6.99362 44.9443 5.8474 45.8736 4.94901C46.803 4.05062 47.9492 3.58594 49.3123 3.58594C50.6754 3.58594 51.8216 4.05062 52.751 4.94901C53.6803 5.8474 54.145 6.99362 54.145 8.32571C54.145 9.65781 53.6803 10.804 52.751 11.7024ZM52.0384 8.32571C52.0384 7.52026 51.7596 6.80775 51.264 6.21915C50.7373 5.63055 50.0868 5.35174 49.3123 5.35174C48.5378 5.35174 47.8873 5.63055 47.3606 6.21915C46.834 6.80775 46.5552 7.48928 46.5552 8.32571C46.5552 9.16215 46.834 9.84368 47.3606 10.4323C47.8873 11.0209 48.5378 11.2997 49.3123 11.2997C50.0868 11.2997 50.7373 11.0209 51.264 10.4323C51.7906 9.84368 52.0384 9.16215 52.0384 8.32571ZM58.3272 10.6182C58.6679 11.0519 59.1326 11.2687 59.7212 11.2687C60.3098 11.2687 60.7745 11.0519 61.0843 10.6182C61.4251 10.1845 61.58 9.59585 61.58 8.88334V3.77181H63.6246V8.91431C63.6246 10.2464 63.2528 11.2687 62.5093 11.9812C61.7658 12.6937 60.8365 13.0655 59.6902 13.0655C58.544 13.0655 57.5837 12.6937 56.8402 11.9812C56.0967 11.2687 55.7249 10.2464 55.7249 8.91431V3.77181H57.7695V8.85236C57.8005 9.59585 57.9864 10.1845 58.3272 10.6182ZM72.7943 4.97999C73.6617 5.78544 74.1264 6.90068 74.1264 8.32571C74.1264 9.75074 73.6927 10.897 72.8563 11.7334C71.9889 12.5698 70.6878 12.9726 68.9529 12.9726H65.7621V3.77181H69.0149C70.6568 3.77181 71.9269 4.17454 72.7943 4.97999ZM71.3073 10.4633C71.803 9.99858 72.0508 9.28606 72.0508 8.38767C72.0508 7.48928 71.803 6.77677 71.3073 6.31208C70.8117 5.81642 70.0372 5.56859 68.9839 5.56859H67.8377V11.1758H69.1388C70.0682 11.1758 70.7807 10.9279 71.3073 10.4633ZM85.8055 3.77181H87.8811V12.9726H85.8055L81.4375 7.21047V12.9726H79.3619V3.77181H81.3135L85.8055 9.71977V3.77181ZM96.6791 12.9726L95.8117 10.9899H91.9393L91.0719 12.9726H88.8724L92.8377 3.77181H94.8203L98.7857 12.9726H96.6791ZM93.922 6.52894L92.7757 9.19312H95.0682L93.922 6.52894ZM103.185 5.56859V12.9726H101.109V5.56859H98.5068V3.77181H105.787V5.56859H103.185ZM107.274 3.77181H109.318V12.9726H107.274V3.77181ZM114.988 9.62683L117.342 3.77181H119.573L115.855 12.9726H114.12L110.434 3.77181H112.664L114.988 9.62683ZM127.286 3.77181V5.59957H122.701V7.52026H126.822V9.25508H122.701V11.1758H127.441V12.9726H120.657V3.77181H127.286ZM30.0124 20.8102C30.57 20.8102 31.0347 20.5934 31.4065 20.1287L32.15 20.9032C31.5614 21.5537 30.8798 21.8945 30.0744 21.8945C29.2689 21.8945 28.6184 21.6467 28.1227 21.151C27.5961 20.6553 27.3482 20.0048 27.3482 19.2613C27.3482 18.4868 27.5961 17.8672 28.1227 17.3406C28.6494 16.8139 29.2999 16.5661 30.0434 16.5661C30.8798 16.5661 31.5923 16.8759 32.1809 17.5265L31.4684 18.3319C31.0967 17.8672 30.663 17.6504 30.1054 17.6504C29.6717 17.6504 29.2999 17.8053 28.9901 18.0841C28.6803 18.3629 28.5254 18.7346 28.5254 19.2303C28.5254 19.726 28.6803 20.0977 28.9591 20.3765C29.2379 20.6863 29.6097 20.8102 30.0124 20.8102ZM37.2615 21.12C36.7349 21.6157 36.0843 21.8945 35.3408 21.8945C34.5973 21.8945 33.9467 21.6467 33.4201 21.12C32.8935 20.6243 32.6456 19.9738 32.6456 19.2303C32.6456 18.4868 32.8935 17.8362 33.4201 17.3406C33.9467 16.8449 34.5973 16.5661 35.3408 16.5661C36.0843 16.5661 36.7349 16.8139 37.2615 17.3406C37.7881 17.8362 38.036 18.4868 38.036 19.2303C38.036 19.9738 37.7881 20.6243 37.2615 21.12ZM36.8897 19.2303C36.8897 18.7656 36.7349 18.3629 36.456 18.0531C36.1463 17.7433 35.8055 17.5574 35.3718 17.5574C34.9381 17.5574 34.5663 17.7123 34.2875 18.0531C33.9777 18.3629 33.8538 18.7656 33.8538 19.2303C33.8538 19.695 34.0087 20.0667 34.2875 20.4075C34.5973 20.7173 34.9381 20.9032 35.3718 20.9032C35.8055 20.9032 36.1772 20.7483 36.456 20.4075C36.7349 20.0977 36.8897 19.695 36.8897 19.2303ZM43.6432 18.5797L42.2491 21.4298H41.5676L40.1735 18.5797V21.8325H39.0273V16.69H40.5762L41.9083 19.5091L43.2404 16.69H44.7894V21.8325H43.6432V18.5797ZM49.6221 17.1547C49.9938 17.4645 50.1797 17.9292 50.1797 18.5797C50.1797 19.2303 49.9938 19.695 49.6221 19.9738C49.2503 20.2836 48.6927 20.4075 47.9182 20.4075H47.2367V21.8325H46.0905V16.69H47.9182C48.6927 16.69 49.2503 16.8449 49.6221 17.1547ZM48.7857 19.1683C48.9096 19.0134 49.0025 18.7966 49.0025 18.4868C49.0025 18.177 48.9096 17.9911 48.7237 17.8672C48.5378 17.7433 48.259 17.6814 47.8873 17.6814H47.2367V19.4162H48.0112C48.3829 19.4162 48.6308 19.3232 48.7857 19.1683ZM52.4412 20.5004C52.627 20.7483 52.9059 20.8722 53.2156 20.8722C53.5254 20.8722 53.8042 20.7483 53.9901 20.5004C54.176 20.2526 54.2689 19.9428 54.2689 19.5091V16.659H55.4151V19.5401C55.4151 20.2836 55.1983 20.8722 54.7956 21.2749C54.3928 21.6776 53.8662 21.8635 53.2156 21.8635C52.5651 21.8635 52.0384 21.6467 51.6357 21.2439C51.233 20.8412 51.0161 20.2526 51.0161 19.5091V16.6281H52.1624V19.5401C52.1624 19.9428 52.2553 20.2836 52.4412 20.5004ZM58.7918 17.6814V21.8325H57.6456V17.6814H56.1896V16.69H60.2479V17.6814H58.7918ZM61.1153 16.69H62.2615V21.8635H61.1153V16.69ZM67.1252 16.69H68.2714V21.8325H67.1252L64.6778 18.6107V21.8325H63.5316V16.69H64.5849L67.1252 20.0048V16.69ZM72.9182 19.2303H74.0645V21.0581C73.5378 21.6157 72.8563 21.9255 71.9269 21.9255C71.1834 21.9255 70.5329 21.6776 70.0062 21.182C69.4796 20.6863 69.2317 20.0358 69.2317 19.2923C69.2317 18.5178 69.4796 17.8982 70.0062 17.3716C70.5329 16.8449 71.1524 16.5971 71.8959 16.5971C72.6394 16.5971 73.29 16.8449 73.8166 17.3406L73.228 18.208C73.0112 17.9911 72.7943 17.8672 72.5775 17.8053C72.3916 17.7433 72.1747 17.6814 71.9579 17.6814C71.5242 17.6814 71.1524 17.8362 70.8427 18.1151C70.5329 18.4248 70.378 18.7966 70.378 19.2923C70.378 19.7879 70.5329 20.1597 70.8117 20.4695C71.0905 20.7483 71.4313 20.9032 71.834 20.9032C72.2367 20.9032 72.5775 20.8412 72.8253 20.6863L72.9182 19.2303ZM80.57 16.69V17.6814H78.1847V18.7966H80.4771V19.8189H78.1847V21.8325H77.0384V16.69H80.57ZM85.8984 21.12C85.3718 21.6157 84.7212 21.8945 83.9777 21.8945C83.2032 21.8945 82.5837 21.6467 82.057 21.12C81.5304 20.6243 81.2826 19.9738 81.2826 19.2303C81.2826 18.4868 81.5304 17.8362 82.057 17.3406C82.5837 16.8449 83.2342 16.5661 83.9777 16.5661C84.7522 16.5661 85.3718 16.8139 85.8984 17.3406C86.4251 17.8362 86.6729 18.4868 86.6729 19.2303C86.6729 19.9738 86.4251 20.6243 85.8984 21.12ZM85.4957 19.2303C85.4957 18.7656 85.3408 18.3629 85.062 18.0531C84.7522 17.7433 84.4114 17.5574 83.9777 17.5574C83.544 17.5574 83.1723 17.7123 82.8935 18.0531C82.5837 18.3629 82.4598 18.7656 82.4598 19.2303C82.4598 19.695 82.6146 20.0667 82.8935 20.4075C83.2032 20.7173 83.544 20.9032 83.9777 20.9032C84.4114 20.9032 84.7832 20.7483 85.062 20.4075C85.3718 20.0977 85.4957 19.695 85.4957 19.2303ZM89.0273 20.5004C89.2132 20.7483 89.492 20.8722 89.8018 20.8722C90.1115 20.8722 90.3904 20.7483 90.5762 20.5004C90.7621 20.2526 90.855 19.9428 90.855 19.5091V16.659H92.0013V19.5401C92.0013 20.2836 91.7844 20.8722 91.3817 21.2749C90.979 21.6776 90.4523 21.8635 89.8018 21.8635C89.1512 21.8635 88.6246 21.6467 88.2218 21.2439C87.8191 20.8412 87.6023 20.2526 87.6023 19.5091V16.6281H88.7485V19.5401C88.7175 19.9428 88.8414 20.2836 89.0273 20.5004ZM96.803 16.69H97.9492V21.8325H96.803L94.3557 18.6107V21.8325H93.2094V16.69H94.2627L96.803 20.0048V16.69ZM103.154 17.3716C103.649 17.8362 103.897 18.4558 103.897 19.2613C103.897 20.0667 103.649 20.6863 103.185 21.151C102.72 21.6157 101.976 21.8635 100.985 21.8635H99.2194V16.69H101.047C101.976 16.69 102.689 16.9069 103.154 17.3716ZM102.317 20.4385C102.596 20.1597 102.751 19.7879 102.751 19.2923C102.751 18.7966 102.596 18.3939 102.317 18.1151C102.038 17.8362 101.605 17.7123 101.016 17.7123H100.366V20.8412H101.109C101.636 20.8102 102.038 20.6863 102.317 20.4385ZM108.42 21.8325L107.955 20.7173H105.787L105.322 21.8325H104.083L106.314 16.659H107.429L109.659 21.8325H108.42ZM106.871 18.208L106.221 19.695H107.522L106.871 18.208ZM112.076 17.6814V21.8325H110.898V17.6814H109.442V16.69H113.532V17.6814H112.076ZM114.368 16.69H115.514V21.8635H114.368V16.69ZM121.121 21.12C120.595 21.6157 119.944 21.8945 119.201 21.8945C118.426 21.8945 117.807 21.6467 117.28 21.12C116.753 20.6243 116.506 19.9738 116.506 19.2303C116.506 18.4868 116.753 17.8362 117.28 17.3406C117.807 16.8449 118.457 16.5661 119.201 16.5661C119.975 16.5661 120.595 16.8139 121.121 17.3406C121.648 17.8362 121.896 18.4868 121.896 19.2303C121.896 19.9738 121.648 20.6243 121.121 21.12ZM120.75 19.2303C120.75 18.7656 120.595 18.3629 120.316 18.0531C120.006 17.7433 119.665 17.5574 119.232 17.5574C118.798 17.5574 118.426 17.7123 118.147 18.0531C117.838 18.3629 117.714 18.7656 117.714 19.2303C117.714 19.695 117.869 20.0667 118.147 20.4075C118.457 20.7173 118.798 20.9032 119.232 20.9032C119.665 20.9032 120.037 20.7483 120.316 20.4075C120.595 20.0977 120.75 19.695 120.75 19.2303ZM126.481 16.69H127.658V21.8325H126.481L124.033 18.6107V21.8325H122.887V16.69H123.972L126.481 20.0048V16.69Z" fill="white"/>
<path d="M5.50912 15.728H2.69003V22.3575H9.28855V19.5074H5.50912V15.728ZM19.6975 15.759V19.5074H15.918V19.4765V22.3575H22.5166V15.728H19.6665L19.6975 15.759ZM2.69003 9.12949H5.5401L5.50912 9.09851V5.35006H9.28855V2.5H2.69003V9.12949ZM15.918 2.5V5.35006H19.6975V9.12949H22.5166V2.5H15.918Z" fill="white"/>
<path d="M15.5463 9.12949L11.7669 5.35006H15.918V2.5H9.28855V5.35006L13.068 9.12949H15.5463ZM12.1386 15.728H9.66029L12.7892 18.8569L13.4087 19.5074H9.28855V22.3575H15.918V19.4765L14.0283 17.6177L12.1386 15.728ZM19.6975 9.12949V13.2497L19.0469 12.5991L15.918 9.47026V11.9796L17.7768 13.8383L19.6665 15.728H22.5166V9.12949H19.6975ZM9.28855 12.8779L5.5401 9.12949H2.69003V15.728H5.50912V11.6078L9.28855 15.3872V12.8779Z" fill="white"/>
</svg>
